[
  {
    "name": "P",
    "image": "/P/7.svg"
  },
  {
    "name": "M",
    "image": "/M/2.svg"
  },
  {
    "name": "G",
    "image": "/G/14.svg"
  },
  {
    "name": "GG",
    "image": "/GG/17.svg"
  },
  {
    "name": "G1",
    "image": "/G1/3.svg"
  },
  {
    "name": "G2",
    "image": "/G2/1.svg"
  }
]